<?xml version="1.0" encoding="UTF-8"?>
<svg width="209px" height="48px" viewBox="0 0 209 48" version="1.1" xmlns="http://www.w3.org/2000/svg" xmlns:xlink="http://www.w3.org/1999/xlink">
    <!-- Generator: Sketch 50.2 (55047) - http://www.bohemiancoding.com/sketch -->
    <title>Group 35</title>
    <desc>Created with Sketch.</desc>
    <defs>
        <polygon id="path-1" points="0 47.8886107 208.697005 47.8886107 208.697005 0 0 0"></polygon>
    </defs>
    <g id="Page-1" stroke="none" stroke-width="1" fill="none" fill-rule="evenodd">
        <g id="ACCUEIL" transform="translate(-89.000000, -2412.000000)">
            <g id="Group-35" transform="translate(89.000000, 2412.000000)">
                <path d="M63.1631912,6.65082137 C64.3843852,7.55805802 65.1676744,8.78297405 65.5126903,10.3259359 L62.3220307,10.3259359 C62.0205104,9.64001221 61.5427961,9.0936916 60.8885192,8.68660763 C60.2346109,8.27952366 59.4623799,8.07579847 58.5710889,8.07579847 C57.6945422,8.07579847 56.918625,8.27585954 56.242969,8.67598168 C55.5673129,9.07610382 55.0427855,9.64770687 54.6693869,10.390058 C54.2956198,11.133142 54.1087362,12.0048366 54.1087362,13.0044092 C54.1087362,14.5902412 54.5363199,15.8261496 55.3914875,16.7117679 C56.246655,17.5977527 57.4140325,18.0403786 58.8947256,18.0403786 C59.9869072,18.0403786 60.9242741,17.7190351 61.7079319,17.0763481 C62.4912212,16.4332947 62.9976868,15.5403481 63.2276974,14.3975084 L58.0753129,14.3975084 L58.0753129,12.2331115 L65.7714522,12.2331115 L65.7714522,15.1475542 C65.5561859,16.1478595 65.1356056,17.0690198 64.5104487,17.9117679 C63.8852917,18.7548824 63.065879,19.4298137 62.0529478,19.9369282 C61.039648,20.4440427 59.8789055,20.6976 58.5710889,20.6976 C57.0763887,20.6976 55.7578825,20.3729588 54.6155704,19.7225771 C53.4728896,19.0729282 52.5889707,18.1656916 51.9638138,17.0012336 C51.3386568,15.8367756 51.0260783,14.5045008 51.0260783,13.0044092 C51.0260783,11.504684 51.3386568,10.1724092 51.9638138,9.00795115 C52.5889707,7.84385954 53.4692035,6.93295878 54.6045122,6.27561527 C55.7398208,5.61863817 57.0546409,5.28996641 58.5497097,5.28996641 C60.4038014,5.28996641 61.94126,5.74358473 63.1631912,6.65082137" id="Fill-1" fill="#1D1D1B"></path>
                <polygon id="Fill-3" fill="#1D1D1B" points="84.8927406 5.61138321 84.8927406 20.5690626 81.8749575 20.5690626 81.8749575 10.1332763 78.0160139 20.5690626 75.3856365 20.5690626 71.5270616 10.1757802 71.5270616 20.5690626 68.4875307 20.5690626 68.4875307 5.61138321 72.1735977 5.61138321 76.7439522 16.8617038 81.2280527 5.61138321"></polygon>
                <polygon id="Fill-5" fill="#1D1D1B" points="97.5253346 5.4400855 97.5253346 7.8400855 91.1226362 7.8400855 91.1226362 11.8904061 96.2536414 11.8904061 96.2536414 14.2046656 91.1226362 14.2046656 91.1226362 20.5692458 88.0831053 20.5692458 88.0831053 5.4400855"></polygon>
                <path d="M54.5398586,33.7274015 L57.0404864,33.7274015 C58.7792042,33.7274015 59.649116,32.9630656 59.649116,31.4343939 C59.649116,30.7059664 59.4367986,30.1380275 59.0132695,29.7305771 C58.5890032,29.3234931 57.9317774,29.1201344 57.0404864,29.1201344 L54.5398586,29.1201344 L54.5398586,33.7274015 Z M59.4334811,41.6990656 L55.8764265,35.806058 L54.5398586,35.806058 L54.5398586,41.6990656 L51.5003277,41.6990656 L51.5003277,26.5699053 L57.2992483,26.5699053 C59.0670861,26.5699053 60.4143436,26.9986076 61.3413894,27.8560122 C62.2684353,28.7130504 62.7317739,29.8416 62.7317739,31.2416611 C62.7317739,32.3848672 62.4118233,33.3415695 61.7726593,34.1132336 C61.1331266,34.8845313 60.2097668,35.398974 59.0022113,35.6561954 L62.7962801,41.6990656 L59.4334811,41.6990656 Z" id="Fill-7" fill="#1D1D1B"></path>
                <path d="M68.5741533,33.1810443 C67.9847511,33.7742656 67.6902344,34.6349679 67.6902344,35.7631511 C67.6902344,36.8917008 67.9847511,37.7527695 68.5741533,38.345258 C69.1631868,38.9384794 69.8816012,39.2345405 70.7297653,39.2345405 C71.5779293,39.2345405 72.2959751,38.9384794 72.8853772,38.345258 C73.4747794,37.7527695 73.7692961,36.8917008 73.7692961,35.7631511 C73.7692961,34.6349679 73.4747794,33.7742656 72.8853772,33.1810443 C72.2959751,32.5881893 71.5779293,32.2917618 70.7297653,32.2917618 C69.8816012,32.2917618 69.1631868,32.5881893 68.5741533,33.1810443 M73.8666083,30.4058382 C74.7932855,30.8917008 75.5227582,31.5952122 76.0546577,32.5167389 C76.5861885,33.4382656 76.8523226,34.5202809 76.8523226,35.7631511 C76.8523226,37.0063878 76.5861885,38.0847389 76.0546577,38.9989374 C75.5227582,39.9131359 74.7932855,40.6170137 73.8666083,41.1098382 C72.9395624,41.6026626 71.8941938,41.849258 70.7297653,41.849258 C69.5660739,41.849258 68.5203367,41.6026626 67.5932908,41.1098382 C66.666245,40.6170137 65.9367723,39.9131359 65.4048728,38.9989374 C64.873342,38.0847389 64.6075765,37.0063878 64.6075765,35.7631511 C64.6075765,34.5202809 64.873342,33.4382656 65.4048728,32.5167389 C65.9367723,31.5952122 66.666245,30.8917008 67.5932908,30.4058382 C68.5203367,29.920342 69.5660739,29.6770443 70.7297653,29.6770443 C71.8941938,29.6770443 72.9395624,29.920342 73.8666083,30.4058382" id="Fill-9" fill="#1D1D1B"></path>
                <path d="M82.7802924,33.2346504 C82.205266,33.8491237 81.9181213,34.6915053 81.9181213,35.7628947 C81.9181213,36.8346504 82.205266,37.6741008 82.7802924,38.2812458 C83.3553189,38.8887573 84.1168603,39.1921466 85.065654,39.1921466 C85.9849591,39.1921466 86.7431831,38.8810626 87.3399573,38.2596275 C87.9359944,37.6381924 88.2345658,36.8064366 88.2345658,35.7628947 C88.2345658,34.7061618 87.9359944,33.8667115 87.3399573,33.2452763 C86.7431831,32.6238412 85.9849591,32.3131237 85.065654,32.3131237 C84.1168603,32.3131237 83.3553189,32.6205435 82.7802924,33.2346504 M86.7037422,30.3843298 C87.4225252,30.8559023 87.9326769,31.4916275 88.2345658,32.2918718 L88.2345658,29.8273832 L91.2527175,29.8273832 L91.2527175,41.7420092 C91.2527175,42.8419786 91.0333965,43.8312916 90.5951231,44.7099481 C90.1564811,45.5886046 89.5025728,46.2774595 88.6333982,46.7779786 C87.7634864,47.2777649 86.7111143,47.5280244 85.475176,47.5280244 C83.7504653,47.5280244 82.3563947,47.1209405 81.2929644,46.3064061 C80.2291654,45.4918718 79.5822607,44.3849405 79.3529873,42.9848794 L82.3493912,42.9848794 C82.5215305,43.5850626 82.8558568,44.0526046 83.3516328,44.3886046 C83.8474088,44.7242382 84.483624,44.892055 85.2595411,44.892055 C86.1504635,44.892055 86.868878,44.6311695 87.4151531,44.1101313 C87.9614282,43.5883603 88.2345658,42.7991084 88.2345658,41.7420092 L88.2345658,39.2133985 C87.9326769,40.0136427 87.4225252,40.6526656 86.7037422,41.1312 C85.9849591,41.6101008 85.122788,41.8493679 84.1168603,41.8493679 C83.1109326,41.8493679 82.205266,41.6064366 81.4005975,41.120574 C80.5955605,40.6350779 79.9670861,39.9312 79.514437,39.0096733 C79.061788,38.088513 78.8354635,37.0061313 78.8354635,35.7628947 C78.8354635,34.5200244 79.061788,33.4380092 79.514437,32.5168489 C79.9670861,31.5953221 80.5955605,30.8918107 81.4005975,30.4059481 C82.205266,29.9204519 83.1109326,29.6771542 84.1168603,29.6771542 C85.122788,29.6771542 85.9849591,29.9127573 86.7037422,30.3843298" id="Fill-11" fill="#1D1D1B"></path>
                <path d="M101.826606,32.8058015 C101.273328,32.3060153 100.593985,32.0561221 99.7893169,32.0561221 C98.9702728,32.0561221 98.2802411,32.3060153 97.7199589,32.8058015 C97.1593081,33.3059542 96.8500471,34.0417099 96.7929131,35.0130687 L102.591834,35.0130687 C102.634961,34.0417099 102.379885,33.3059542 101.826606,32.8058015 M105.545111,36.3416794 L96.7929131,36.3416794 C96.83604,37.399145 97.1231847,38.177771 97.6554527,38.6775573 C98.186615,39.1780763 98.8478954,39.4276031 99.6385568,39.4276031 C100.342596,39.4276031 100.928312,39.2561221 101.395705,38.9135267 C101.862361,38.5705649 102.160564,38.1063206 102.290313,37.5204275 L105.502352,37.5204275 C105.343851,38.3492519 105.006208,39.0919695 104.489052,39.7489466 C103.971529,40.4062901 103.306562,40.9207328 102.49489,41.2919084 C101.68285,41.6638168 100.780869,41.8492214 99.7893169,41.8492214 C98.625257,41.8492214 97.590578,41.602626 96.6849113,41.1098015 C95.7796132,40.6169771 95.0755744,39.9134656 94.5724263,38.9989008 C94.0692781,38.0847023 93.8178884,37.0063511 93.8178884,35.7631145 C93.8178884,34.5202443 94.0692781,33.438229 94.5724263,32.5167023 C95.0755744,31.5951756 95.7796132,30.8916641 96.6849113,30.4058015 C97.590578,29.9203053 98.625257,29.6770076 99.7893169,29.6770076 C100.967753,29.6770076 101.999114,29.9203053 102.883033,30.4058015 C103.766952,30.8916641 104.449243,31.5596336 104.931012,32.4097099 C105.412412,33.2597863 105.653112,34.2278473 105.653112,35.3131603 C105.653112,35.6132519 105.616989,35.9562137 105.545111,36.3416794" id="Fill-13" fill="#1D1D1B"></path>
                <path d="M112.615687,30.3093985 C113.348478,29.8737344 114.16789,29.6557191 115.073188,29.6557191 L115.073188,32.8918718 L114.189638,32.8918718 C111.961779,32.8918718 110.84785,33.9200244 110.84785,35.977429 L110.84785,41.6989557 L107.808319,41.6989557 L107.808319,29.8272 L110.84785,29.8272 L110.84785,32.0985893 C111.293127,31.3415817 111.882897,30.745429 112.615687,30.3093985" id="Fill-15" fill="#1D1D1B"></path>
                <polygon id="Fill-17" fill="#1D1D1B" points="124.49367 39.3848061 129.602927 39.3848061 129.602927 41.6990656 121.454139 41.6990656 121.454139 26.5699053 124.49367 26.5699053"></polygon>
                <path d="M134.754575,33.2346504 C134.179548,33.8491237 133.892404,34.6915053 133.892404,35.7628947 C133.892404,36.8346504 134.179548,37.6741008 134.754575,38.2812458 C135.329601,38.8887573 136.091143,39.1921466 137.039936,39.1921466 C137.959241,39.1921466 138.717465,38.8810626 139.31424,38.2596275 C139.910277,37.6381924 140.208848,36.8064366 140.208848,35.7628947 C140.208848,34.7061618 139.910277,33.8667115 139.31424,33.2452763 C138.717465,32.6238412 137.959241,32.3131237 137.039936,32.3131237 C136.091143,32.3131237 135.329601,32.6205435 134.754575,33.2346504 M138.678024,30.3843298 C139.396807,30.8559023 139.906959,31.4916275 140.208848,32.2918718 L140.208848,29.8273832 L143.227,29.8273832 L143.227,41.6991389 L140.208848,41.6991389 L140.208848,39.2133985 C139.906959,40.0136427 139.396807,40.6526656 138.678024,41.1312 C137.959241,41.6101008 137.09707,41.8493679 136.091143,41.8493679 C135.085215,41.8493679 134.179548,41.6064366 133.37488,41.120574 C132.569843,40.6350779 131.941368,39.9312 131.488719,39.0096733 C131.03607,38.088513 130.809746,37.0061313 130.809746,35.7628947 C130.809746,34.5200244 131.03607,33.4380092 131.488719,32.5168489 C131.941368,31.5953221 132.569843,30.8918107 133.37488,30.4059481 C134.179548,29.9204519 135.085215,29.6771542 136.091143,29.6771542 C137.09707,29.6771542 137.959241,29.9127573 138.678024,30.3843298" id="Fill-19" fill="#1D1D1B"></path>
                <path d="M149.898855,33.245313 C149.30208,33.8667481 149.004246,34.7061985 149.004246,35.7629313 C149.004246,36.8061069 149.30208,37.638229 149.898855,38.2596641 C150.49526,38.8810992 151.253116,39.1921832 152.173158,39.1921832 C153.121583,39.1921832 153.883125,38.8884275 154.45852,38.2812824 C155.032809,37.6741374 155.320691,36.834687 155.320691,35.7629313 C155.320691,34.691542 155.032809,33.8491603 154.45852,33.234687 C153.883125,32.6205802 153.121583,32.3131603 152.173158,32.3131603 C151.253116,32.3131603 150.49526,32.6238779 149.898855,33.245313 M155.837846,30.4059847 C156.642883,30.8918473 157.271357,31.5953588 157.724375,32.5168855 C158.177024,33.4380458 158.403349,34.5200611 158.403349,35.7629313 C158.403349,37.0061679 158.177024,38.0881832 157.724375,39.0097099 C157.271357,39.9312366 156.642883,40.6347481 155.837846,41.1206107 C155.032809,41.6064733 154.127511,41.8494046 153.121583,41.8494046 C152.115655,41.8494046 151.25717,41.6101374 150.545759,41.1312366 C149.834349,40.6527023 149.327514,40.0136794 149.025625,39.2134351 L149.025625,41.6991756 L145.986095,41.6991756 L145.986095,25.8412214 L149.025625,25.8412214 L149.025625,32.2919084 C149.327514,31.4916641 149.834349,30.8559389 150.545759,30.3843664 C151.25717,29.9127939 152.115655,29.6771908 153.121583,29.6771908 C154.127511,29.6771908 155.032809,29.9204885 155.837846,30.4059847" id="Fill-21" fill="#1D1D1B"></path>
                <path d="M167.964159,32.8058015 C167.41088,32.3060153 166.731538,32.0561221 165.926869,32.0561221 C165.107825,32.0561221 164.417793,32.3060153 163.857511,32.8058015 C163.29686,33.3059542 162.987599,34.0417099 162.930465,35.0130687 L168.729386,35.0130687 C168.772513,34.0417099 168.517437,33.3059542 167.964159,32.8058015 M171.682663,36.3416794 L162.930465,36.3416794 C162.973592,37.399145 163.260737,38.177771 163.792637,38.6775573 C164.324167,39.1780763 164.985448,39.4276031 165.776109,39.4276031 C166.480148,39.4276031 167.065864,39.2561221 167.533257,38.9135267 C167.999913,38.5705649 168.298116,38.1063206 168.427866,37.5204275 L171.639905,37.5204275 C171.481404,38.3492519 171.14376,39.0919695 170.626605,39.7489466 C170.109081,40.4062901 169.444114,40.9207328 168.632443,41.2919084 C167.820402,41.6638168 166.918421,41.8492214 165.926869,41.8492214 C164.762809,41.8492214 163.72813,41.602626 162.822464,41.1098015 C161.917166,40.6169771 161.213127,39.9134656 160.709979,38.9989008 C160.206831,38.0847023 159.955441,37.0063511 159.955441,35.7631145 C159.955441,34.5202443 160.206831,33.438229 160.709979,32.5167023 C161.213127,31.5951756 161.917166,30.8916641 162.822464,30.4058015 C163.72813,29.9203053 164.762809,29.6770076 165.926869,29.6770076 C167.105305,29.6770076 168.136666,29.9203053 169.020585,30.4058015 C169.904504,30.8916641 170.586795,31.5596336 171.068196,32.4097099 C171.549965,33.2597863 171.790665,34.2278473 171.790665,35.3131603 C171.790665,35.6132519 171.754541,35.9562137 171.682663,36.3416794" id="Fill-23" fill="#1D1D1B"></path>
                <path d="M178.753572,30.3093985 C179.486362,29.8737344 180.305774,29.6557191 181.211072,29.6557191 L181.211072,32.8918718 L180.327522,32.8918718 C178.099663,32.8918718 176.985734,33.9200244 176.985734,35.977429 L176.985734,41.6989557 L173.946203,41.6989557 L173.946203,29.8272 L176.985734,29.8272 L176.985734,32.0985893 C177.431011,31.3415817 178.020781,30.745429 178.753572,30.3093985" id="Fill-25" fill="#1D1D1B"></path>
                <path d="M186.233781,33.2346504 C185.658755,33.8491237 185.37161,34.6915053 185.37161,35.7628947 C185.37161,36.8346504 185.658755,37.6741008 186.233781,38.2812458 C186.808808,38.8887573 187.570349,39.1921466 188.519143,39.1921466 C189.438448,39.1921466 190.196672,38.8810626 190.793446,38.2596275 C191.389483,37.6381924 191.688054,36.8064366 191.688054,35.7628947 C191.688054,34.7061618 191.389483,33.8667115 190.793446,33.2452763 C190.196672,32.6238412 189.438448,32.3131237 188.519143,32.3131237 C187.570349,32.3131237 186.808808,32.6205435 186.233781,33.2346504 M190.157231,30.3843298 C190.876014,30.8559023 191.386166,31.4916275 191.688054,32.2918718 L191.688054,29.8273832 L194.706206,29.8273832 L194.706206,41.7420092 C194.706206,42.8419786 194.486885,43.8312916 194.048612,44.7099481 C193.60997,45.5886046 192.956062,46.2774595 192.086887,46.7779786 C191.216975,47.2777649 190.164603,47.5280244 188.928665,47.5280244 C187.203954,47.5280244 185.809883,47.1209405 184.746453,46.3064061 C183.682654,45.4918718 183.035749,44.3849405 182.806476,42.9848794 L185.80288,42.9848794 C185.975019,43.5850626 186.309346,44.0526046 186.805122,44.3886046 C187.300898,44.7242382 187.937113,44.892055 188.71303,44.892055 C189.603952,44.892055 190.322367,44.6311695 190.868642,44.1101313 C191.414917,43.5883603 191.688054,42.7991084 191.688054,41.7420092 L191.688054,39.2133985 C191.386166,40.0136427 190.876014,40.6526656 190.157231,41.1312 C189.438448,41.6101008 188.576277,41.8493679 187.570349,41.8493679 C186.564421,41.8493679 185.658755,41.6064366 184.854086,41.120574 C184.049049,40.6350779 183.420575,39.9312 182.967926,39.0096733 C182.515277,38.088513 182.288952,37.0061313 182.288952,35.7628947 C182.288952,34.5200244 182.515277,33.4380092 182.967926,32.5168489 C183.420575,31.5953221 184.049049,30.8918107 184.854086,30.4059481 C185.658755,29.9204519 186.564421,29.6771542 187.570349,29.6771542 C188.576277,29.6771542 189.438448,29.9127573 190.157231,30.3843298" id="Fill-27" fill="#1D1D1B"></path>
                <path d="M204.870462,32.8058015 C204.317184,32.3060153 203.637841,32.0561221 202.833542,32.0561221 C202.014129,32.0561221 201.324097,32.3060153 200.763815,32.8058015 C200.203164,33.3059542 199.893903,34.0417099 199.836769,35.0130687 L205.63569,35.0130687 C205.678817,34.0417099 205.423741,33.3059542 204.870462,32.8058015 M208.588967,36.3416794 L199.836769,36.3416794 C199.879896,37.399145 200.167041,38.177771 200.699309,38.6775573 C201.230471,39.1780763 201.891751,39.4276031 202.682413,39.4276031 C203.386452,39.4276031 203.972168,39.2561221 204.439561,38.9135267 C204.906217,38.5705649 205.20442,38.1063206 205.334169,37.5204275 L208.546208,37.5204275 C208.387707,38.3492519 208.050064,39.0919695 207.532908,39.7489466 C207.015385,40.4062901 206.350418,40.9207328 205.538746,41.2919084 C204.726706,41.6638168 203.824725,41.8492214 202.833542,41.8492214 C201.669113,41.8492214 200.634434,41.602626 199.728767,41.1098015 C198.823469,40.6169771 198.119431,39.9134656 197.616282,38.9989008 C197.113134,38.0847023 196.861744,37.0063511 196.861744,35.7631145 C196.861744,34.5202443 197.113134,33.438229 197.616282,32.5167023 C198.119431,31.5951756 198.823469,30.8916641 199.728767,30.4058015 C200.634434,29.9203053 201.669113,29.6770076 202.833542,29.6770076 C204.011609,29.6770076 205.04297,29.9203053 205.926889,30.4058015 C206.810808,30.8916641 207.493099,31.5596336 207.974868,32.4097099 C208.456268,33.2597863 208.696968,34.2278473 208.696968,35.3131603 C208.696968,35.6132519 208.660845,35.9562137 208.588967,36.3416794" id="Fill-29" fill="#1D1D1B"></path>
                <mask id="mask-2" fill="white">
                    <use xlink:href="#path-1"></use>
                </mask>
                <g id="Clip-32"></g>
                <polygon id="Fill-31" fill="#3A9DC3" mask="url(#mask-2)" points="9.80346384 38.3069313 42.8822293 38.3069313 42.8822293 0.000366412214 9.80346384 0.000366412214"></polygon>
                <polygon id="Fill-33" fill="#00518C" mask="url(#mask-2)" points="42.8821187 38.3068947 42.8821187 47.8882076 0.00615573192 47.8882076 0.00615573192 0.000329770992 9.80335326 0.000329770992 9.80335326 38.3068947"></polygon>
                <path d="M26.3417407,35.4721832 C25.9587584,34.9551756 25.5993668,34.4707786 25.4810441,34.3201832 C24.4025009,33.0370076 23.2060035,31.8520305 21.9055591,30.7941985 C22.6055432,30.3054046 23.3950988,30.0185038 24.2701711,29.9620763 C24.7478854,29.9199389 25.2208078,29.9525496 25.6701393,30.0514809 C26.4648554,30.2255267 27.1692628,30.5780153 27.7700917,31.090626 C27.9639788,31.259542 28.139067,31.4335878 28.2997795,31.6215573 C27.4247072,32.7970076 26.7722734,34.085313 26.3417407,35.4721832 M22.8937937,23.6667481 C23.3622928,23.2061679 23.9863439,22.9522443 24.6531534,22.9522443 L24.6627372,22.9522443 C26.0107319,22.961771 27.1080741,24.0569771 27.1080741,25.4112366 C27.1080741,26.7603664 25.9963563,27.8650992 24.6391464,27.8650992 C23.9771287,27.8650992 23.3575009,27.6067786 22.8845785,27.1458321 C22.4208713,26.6757252 22.1654268,26.0597863 22.1654268,25.4112366 C22.1654268,24.7483969 22.430455,24.132458 22.8937937,23.6667481 M39.158933,14.2451908 C40.5636931,14.2547176 41.8593457,14.7530382 42.8811235,15.5803969 L42.8811235,12.5904733 C42.0532328,12.1811908 41.1641534,11.9133435 40.2135168,11.7909618 C40.0575961,11.7722748 39.896515,11.7535878 39.7405944,11.7349008 L39.4711429,11.711084 L38.6812187,11.711084 L38.4069753,11.7440611 C38.1939206,11.7675115 37.9908183,11.7865649 37.7873474,11.8239389 C36.0327795,12.096916 34.5240723,12.8253435 33.2988236,13.9868702 C31.0429506,16.1303817 30.182254,18.7538931 30.721157,21.791084 C31.0809171,23.8360305 32.1355009,25.5614656 33.8568942,26.9061985 C33.9516261,26.981313 34.046358,27.0472672 34.1359295,27.1176183 C32.6036314,27.7287939 31.2320459,28.5847328 30.0451323,29.6847023 C29.9172257,29.7975573 29.7896878,29.9151756 29.6665732,30.0371908 C29.1416772,29.4780458 28.5220494,29.0031756 27.8364409,28.6411603 C27.8932063,28.5847328 27.9543951,28.523542 28.0067372,28.4575878 C29.0185626,27.3294046 29.3923298,26.0033588 29.1085026,24.5179237 C28.8958166,23.4131908 28.3185785,22.5008244 27.3823175,21.791084 C26.7578977,21.3114504 26.0295309,21.0153893 25.2351834,20.9120611 L24.4592663,20.8743206 L24.2513721,20.8930076 C24.1470564,20.897771 24.0431093,20.9120611 23.9343704,20.9307481 C22.9981093,21.0765802 22.1938095,21.4668092 21.5317919,22.087145 C20.3493016,23.2156947 19.8763792,24.6494656 20.1602063,26.2481221 C20.3209189,27.1788092 20.7562434,27.9827176 21.4466437,28.6411603 C20.9925203,28.8760305 20.5667795,29.1629313 20.1790053,29.4967328 C20.1697901,29.4919695 20.1649982,29.4872061 20.1554145,29.4824427 C19.9475203,29.341374 19.7488413,29.2050687 19.5357866,29.064 C19.3562751,28.9559084 19.1763951,28.8338931 18.9920917,28.7301985 C17.7244533,27.9501069 16.3860423,27.2821374 14.9956578,26.736916 C14.4044127,26.5064427 13.8083757,26.2950229 13.1983316,26.069313 C13.2643122,26.0271756 13.3166543,25.9941985 13.3686279,25.9612214 C14.8629594,25.1008855 16.2061623,24.0569771 17.3462628,22.7781985 C21.0492857,18.6410382 22.4112875,13.8219847 21.3758713,8.3968855 C20.7418677,5.08708397 19.2047778,2.28476336 16.8777637,0.000183206107 L11.3538236,0.000183206107 C15.529769,2.22833588 18.3960547,6.62418321 18.3912628,11.6546565 C18.3912628,17.287145 14.8157778,22.1061985 9.80235802,23.9913893 C8.34083245,24.5461374 6.75656085,24.8469618 5.10114815,24.8469618 C3.29939859,24.8469618 1.57431922,24.4834809 0.00405467372,23.8301679 L0,28.7041832 C1.0781746,28.4689466 2.19247266,28.3073588 3.32298942,28.2179542 C5.50808995,28.0534351 7.66923104,28.1802137 9.80235802,28.6173435 C9.90188183,28.6363969 10.0058289,28.655084 10.1049841,28.6785344 C12.8909136,29.2897099 15.4494127,30.3523053 17.7812187,31.8754809 C18.0886367,32.0729771 18.3960547,32.2891603 18.6986808,32.5057099 C19.2191534,32.8816489 19.7296737,33.2861679 20.2309788,33.7090076 C21.8440018,35.0914809 23.2295944,36.6241832 24.3696949,38.3071145 C25.8640265,40.4931298 26.9565767,42.9286718 27.6425538,45.6086107 C27.8364409,46.3604885 27.9591869,47.1317863 28.1154762,47.8884275 L31.4638995,47.8884275 L31.4167178,47.6253435 C31.2700123,46.8448855 31.1564815,46.0644275 30.9813933,45.2934962 C30.4281146,42.8392672 29.5058607,40.4931298 28.2666049,38.3258015 C28.2666049,38.3258015 28.2666049,38.3214046 28.2618131,38.3214046 L28.247806,38.3071145 L28.2949877,38.3071145 L28.4085185,37.7007023 C28.4416931,37.5218931 28.4700758,37.3434504 28.5124656,37.1646412 C28.7870776,35.9752672 29.2220335,34.884458 29.8272857,33.9065038 C29.9644074,33.6621069 30.1159048,33.4363969 30.2814092,33.210687 C30.4660811,32.9523664 30.6647601,32.7076031 30.8774462,32.4632061 C31.0241517,32.2847634 31.1848642,32.1154809 31.3599524,31.9461985 C31.7853245,31.5134656 32.2490317,31.1188397 32.7503369,30.7472977 C34.372575,29.5766107 36.2266667,28.8947176 38.2698536,28.7349618 C39.3384444,28.655084 40.4074039,28.7210382 41.4339735,28.951145 C41.9304868,29.0596031 42.416679,29.2021374 42.8848095,29.3761832 L42.8848095,24.8341374 C41.8538166,25.6710229 40.5353104,26.1726412 39.1021675,26.1726412 L39.0973757,26.1726412 C37.4987284,26.1726412 35.9948131,25.547542 34.859873,24.4189924 C33.7293563,23.2860458 33.1049365,21.791084 33.1049365,20.2067176 C33.1049365,18.6128244 33.7341481,17.1083359 34.8690882,15.984916 C36.0231958,14.8563664 37.5178959,14.2499542 39.158933,14.2451908" id="Fill-34" fill="#FEFEFE" mask="url(#mask-2)"></path>
            </g>
        </g>
    </g>
</svg>