<?xml version="1.0" encoding="UTF-8"?>
<svg width="209px" height="48px" viewBox="0 0 209 48" version="1.1" xmlns="http://www.w3.org/2000/svg" xmlns:xlink="http://www.w3.org/1999/xlink">
    <!-- Generator: Sketch 50.2 (55047) - http://www.bohemiancoding.com/sketch -->
    <title>Group 35</title>
    <desc>Created with Sketch.</desc>
    <defs>
        <polygon id="path-1" points="0 48 209 48 209 0 0 0"></polygon>
    </defs>
    <g id="Page-1" stroke="none" stroke-width="1" fill="none" fill-rule="evenodd">
        <g id="ACCUEIL" transform="translate(-89.000000, -81.000000)">
            <g id="Group-35" transform="translate(89.000000, 81.000000)">
                <path d="M63.346699,6.32485137 C64.5889808,7.20808561 65.3857961,8.40059453 65.7367697,9.90273484 L62.4910132,9.90273484 C62.1842862,9.23495838 61.6983226,8.70309156 61.0327475,8.30677765 C60.3675474,7.91046373 59.5819814,7.71212842 58.6752994,7.71212842 C57.7836162,7.71212842 56.9943004,7.90689655 56.306977,8.29643282 C55.6196535,8.68596908 55.0860685,9.24244946 54.706222,9.96516052 C54.3260005,10.688585 54.1358898,11.5372176 54.1358898,12.5103448 C54.1358898,14.0542212 54.5708572,15.2574316 55.4407919,16.1196195 C56.3107267,16.9821641 57.4982626,17.4130797 59.0045247,17.4130797 C60.1155663,17.4130797 61.0691198,17.1002378 61.86631,16.4745541 C62.6631253,15.8485137 63.1783366,14.9791914 63.4123191,13.8665874 L58.1709622,13.8665874 L58.1709622,11.759453 L66,11.759453 L66,14.5967895 C65.7810164,15.5706302 65.3531735,16.4674197 64.7172212,17.2878716 C64.0812689,18.1086801 63.2477064,18.7657551 62.2172837,19.259453 C61.186486,19.753151 60.0056996,20 58.6752994,20 C57.1547884,20 55.813514,19.6839477 54.6514761,19.0507729 C53.4890633,18.4183115 52.5898808,17.5350773 51.9539285,16.4014269 C51.3179762,15.2677765 51,13.9707491 51,12.5103448 C51,11.0502973 51.3179762,9.75326992 51.9539285,8.6196195 C52.5898808,7.4863258 53.4853136,6.59952438 54.640227,5.95957194 C55.7951404,5.31997622 57.1326651,5 58.653551,5 C60.5396595,5 62.1036672,5.44161712 63.346699,6.32485137" id="Fill-1" fill="#FEFEFE"></path>
                <polygon id="Fill-3" fill="#FEFEFE" points="85 5 85 20 82.0567564 20 82.0567564 9.53468718 78.293129 20 75.7277221 20 71.9644542 9.57731125 71.9644542 20 69 20 69 5 72.5950209 5 77.0524873 16.2821518 81.4258302 5"></polygon>
                <polygon id="Fill-5" fill="#FEFEFE" points="98 5 98 7.37951078 91.2190818 7.37951078 91.2190818 11.3952531 96.6531855 11.3952531 96.6531855 13.6897554 91.2190818 13.6897554 91.2190818 20 88 20 88 5"></polygon>
                <path d="M54.228977,34.0963914 L56.8854626,34.0963914 C58.7325502,34.0963914 59.6566814,33.3385808 59.6566814,31.8229596 C59.6566814,31.1007508 59.4311307,30.5376605 58.9812041,30.1336885 C58.5304944,29.7300799 57.8323054,29.5284573 56.8854626,29.5284573 L54.228977,29.5284573 L54.228977,34.0963914 Z M59.4276065,42 L55.6488497,36.157302 L54.228977,36.157302 L54.228977,42 L51,42 L51,27 L57.1603524,27 C59.0383749,27 60.4696035,27.4250424 61.4544298,28.2751271 C62.439256,29.1248486 62.9314733,30.2437636 62.9314733,31.6318721 C62.9314733,32.7653185 62.591581,33.7138532 61.9125795,34.4789295 C61.2331865,35.2436425 60.2522761,35.7536934 58.9694567,36.0087188 L63,42 L59.4276065,42 Z" id="Fill-7" fill="#FEFEFE"></path>
                <path d="M67.8872934,33.454425 C67.3096722,34.0392535 67.0210422,34.8877784 67.0210422,36 C67.0210422,37.1125828 67.3096722,37.961469 67.8872934,38.545575 C68.4645534,39.1304034 69.1686083,39.4222757 69.9998194,39.4222757 C70.8310304,39.4222757 71.5347241,39.1304034 72.1123453,38.545575 C72.6899666,37.961469 72.9785966,37.1125828 72.9785966,36 C72.9785966,34.8877784 72.6899666,34.0392535 72.1123453,33.454425 C71.5347241,32.8699579 70.8310304,32.5777243 69.9998194,32.5777243 C69.1686083,32.5777243 68.4645534,32.8699579 67.8872934,33.454425 M73.0739637,30.7184828 C73.9821187,31.1974714 74.6970107,31.8910295 75.2182787,32.7995184 C75.7391854,33.7080072 76,34.774714 76,36 C76,37.2256472 75.7391854,38.2887417 75.2182787,39.190006 C74.6970107,40.0912703 73.9821187,40.7851896 73.0739637,41.2710415 C72.1654475,41.7568934 71.1409735,42 69.9998194,42 C68.8593877,42 67.8345525,41.7568934 66.9260363,41.2710415 C66.0175201,40.7851896 65.302628,40.0912703 64.7813601,39.190006 C64.2604534,38.2887417 64,37.2256472 64,36 C64,34.774714 64.2604534,33.7080072 64.7813601,32.7995184 C65.302628,31.8910295 66.0175201,31.1974714 66.9260363,30.7184828 C67.8345525,30.2398555 68.8593877,30 69.9998194,30 C71.1409735,30 72.1654475,30.2398555 73.0739637,30.7184828" id="Fill-9" fill="#FEFEFE"></path>
                <path d="M83.1299611,33.5872162 C82.5279485,34.2068229 82.227328,35.056242 82.227328,36.136582 C82.227328,37.2172914 82.5279485,38.0637547 83.1299611,38.6759719 C83.7319738,39.2885586 84.5292546,39.5944825 85.5225755,39.5944825 C86.4850239,39.5944825 87.2788316,39.2807997 87.9036127,38.654173 C88.5276219,38.0275463 88.8402054,37.1888419 88.8402054,36.136582 C88.8402054,35.071021 88.5276219,34.2245577 87.9036127,33.5979309 C87.2788316,32.9713042 86.4850239,32.6579909 85.5225755,32.6579909 C84.5292546,32.6579909 83.7319738,32.967979 83.1299611,33.5872162 M87.2375397,30.7130835 C87.9900555,31.1885956 88.5241488,31.8296318 88.8402054,32.6365614 L88.8402054,30.1514841 L92,30.1514841 L92,42.1656472 C92,43.274806 91.7703862,44.2723839 91.3115445,45.1583809 C90.8523169,46.0443778 90.1677205,46.7389876 89.2577552,47.2436882 C88.3470181,47.7476497 87.2452578,48 85.9513165,48 C84.1456645,48 82.6861697,47.5895152 81.5728322,46.768176 C80.4591089,45.9468369 79.7818446,44.8306581 79.5418114,43.4189006 L82.6788375,43.4189006 C82.8590554,44.0240979 83.2090717,44.4955458 83.7281147,44.8343528 C84.2471577,45.1727903 84.9132306,45.3420091 85.7255618,45.3420091 C86.6582955,45.3420091 87.4104254,45.0789441 87.9823374,44.5535531 C88.5542494,44.0274231 88.8402054,43.2315777 88.8402054,42.1656472 L88.8402054,39.615912 C88.5241488,40.4228417 87.9900555,41.0672031 87.2375397,41.5497352 C86.4850239,42.0326368 85.5823908,42.2739029 84.5292546,42.2739029 C83.4761184,42.2739029 82.5279485,42.0289421 81.6855167,41.5390205 C80.842699,41.0494684 80.18473,40.3397102 79.710838,39.4104848 C79.236946,38.481629 79,37.3902049 79,36.136582 C79,34.8833285 79.236946,33.7922739 79.710838,32.863418 C80.18473,31.9341927 80.842699,31.224804 81.6855167,30.7348824 C82.5279485,30.2453303 83.4761184,30 84.5292546,30 C85.5823908,30 86.4850239,30.2375713 87.2375397,30.7130835" id="Fill-11" fill="#FEFEFE"></path>
                <path d="M102.120219,33.0845274 C101.559238,32.5918122 100.870437,32.3454545 100.054566,32.3454545 C99.2241186,32.3454545 98.5244799,32.5918122 97.9563972,33.0845274 C97.3879407,33.5776039 97.074374,34.30295 97.0164445,35.2605659 L102.896101,35.2605659 C102.939828,34.30295 102.681201,33.5776039 102.120219,33.0845274 M105.890495,36.5703793 L97.0164445,36.5703793 C97.0601719,37.6128838 97.3513143,38.3804937 97.8909929,38.8732089 C98.4295503,39.3666466 99.1000374,39.612643 99.9017067,39.612643 C100.615548,39.612643 101.209418,39.4435882 101.683319,39.1058399 C102.156472,38.7677303 102.458826,38.3100542 102.590382,37.7324503 L105.847141,37.7324503 C105.686433,38.5495485 105.344089,39.281758 104.819733,39.9294401 C104.295004,40.5774834 103.62078,41.0846478 102.797807,41.4505719 C101.974461,41.8172185 101.059923,42 100.054566,42 C98.8742992,42 97.8252149,41.7568934 96.9069391,41.2710415 C95.989037,40.7851896 95.2751962,40.0916315 94.765043,39.190006 C94.2548897,38.2887417 94,37.2256472 94,36 C94,34.774714 94.2548897,33.7080072 94.765043,32.7995184 C95.2751962,31.8910295 95.989037,31.1974714 96.9069391,30.7184828 C97.8252149,30.2398555 98.8742992,30 100.054566,30 C101.249408,30 102.295129,30.2398555 103.191354,30.7184828 C104.087579,31.1974714 104.77937,31.8559904 105.267846,32.6940397 C105.755949,33.5320891 106,34.4864539 106,35.5564118 C106,35.8522577 105.963374,36.1903672 105.890495,36.5703793" id="Fill-13" fill="#FEFEFE"></path>
                <path d="M113.293825,30.6513326 C114.100766,30.2172326 115.003095,30 116,30 L116,33.2245345 L115.027043,33.2245345 C112.573748,33.2245345 111.3471,34.248996 111.3471,36.2990142 L111.3471,42 L108,42 L108,30.1708653 L111.3471,30.1708653 L111.3471,32.4341 C111.837435,31.6798101 112.486884,31.0857977 113.293825,30.6513326" id="Fill-15" fill="#FEFEFE"></path>
                <polygon id="Fill-17" fill="#FEFEFE" points="124.357036 39.7054977 130 39.7054977 130 42 121 42 121 27 124.357036 27"></polygon>
                <path d="M135.129961,33.5071644 C134.527948,34.112944 134.227328,34.9434076 134.227328,35.9996388 C134.227328,37.0562312 134.527948,37.8838049 135.129961,38.48236 C135.731974,39.0812763 136.529255,39.3803733 137.522575,39.3803733 C138.485024,39.3803733 139.278832,39.0736905 139.903613,38.4610476 C140.527622,37.8484046 140.840205,37.0284166 140.840205,35.9996388 C140.840205,34.9578567 140.527622,34.130283 139.903613,33.51764 C139.278832,32.904997 138.485024,32.5986755 137.522575,32.5986755 C136.529255,32.5986755 135.731974,32.9017459 135.129961,33.5071644 M139.23754,30.6971704 C139.990056,31.162071 140.524149,31.7888019 140.840205,32.5777243 L140.840205,30.1481036 L144,30.1481036 L144,41.8518964 L140.840205,41.8518964 L140.840205,39.4013245 C140.524149,40.1902468 139.990056,40.8202288 139.23754,41.2919928 C138.485024,41.764118 137.582391,42 136.529255,42 C135.476118,42 134.527948,41.7605057 133.685517,41.2815172 C132.842699,40.8028898 132.18473,40.1089705 131.710838,39.2004816 C131.236946,38.292354 131,37.225286 131,35.9996388 C131,34.7743528 131.236946,33.707646 131.710838,32.7995184 C132.18473,31.8910295 132.842699,31.1974714 133.685517,30.7184828 C134.527948,30.2398555 135.476118,30 136.529255,30 C137.582391,30 138.485024,30.2322697 139.23754,30.6971704" id="Fill-19" fill="#FEFEFE"></path>
                <path d="M150.096387,33.4003067 C149.471606,34.0214242 149.159795,34.8604454 149.159795,35.9166381 C149.159795,36.9592804 149.471606,37.7909771 150.096387,38.4120946 C150.720782,39.033212 151.514204,39.344137 152.477425,39.344137 C153.470359,39.344137 154.26764,39.0405365 154.870039,38.4337018 C155.47128,37.8268672 155.772672,36.9878459 155.772672,35.9166381 C155.772672,34.8457964 155.47128,34.0038454 154.870039,33.3896862 C154.26764,32.7758932 153.470359,32.4686305 152.477425,32.4686305 C151.514204,32.4686305 150.720782,32.7791893 150.096387,33.4003067 M156.314097,30.5624299 C157.156915,31.0480441 157.814884,31.751196 158.289162,32.6722516 C158.763054,33.592941 159,34.6744032 159,35.9166381 C159,37.1592392 158.763054,38.2407013 158.289162,39.161757 C157.814884,40.0828126 157.156915,40.7859644 156.314097,41.2715787 C155.47128,41.7571929 154.523496,42 153.470359,42 C152.417223,42 151.518449,41.7608551 150.773652,41.2821992 C150.028854,40.8039095 149.498234,40.1652132 149.182177,39.365378 L149.182177,41.8498478 L146,41.8498478 L146,26 L149.182177,26 L149.182177,32.4473895 C149.498234,31.6475543 150.028854,31.0121541 150.773652,30.5408226 C151.518449,30.0694912 152.417223,29.8340086 153.470359,29.8340086 C154.523496,29.8340086 155.47128,30.0771819 156.314097,30.5624299" id="Fill-21" fill="#FEFEFE"></path>
                <path d="M168.120219,33.0845274 C167.559238,32.5918122 166.870437,32.3454545 166.054566,32.3454545 C165.224119,32.3454545 164.52448,32.5918122 163.956397,33.0845274 C163.387941,33.5776039 163.074374,34.30295 163.016444,35.2605659 L168.896101,35.2605659 C168.939828,34.30295 168.681201,33.5776039 168.120219,33.0845274 M171.890495,36.5703793 L163.016444,36.5703793 C163.060172,37.6128838 163.351314,38.3804937 163.890619,38.8732089 C164.42955,39.3666466 165.100037,39.612643 165.901707,39.612643 C166.615548,39.612643 167.209418,39.4435882 167.683319,39.1058399 C168.156472,38.7677303 168.458826,38.3100542 168.590382,37.7324503 L171.847141,37.7324503 C171.686433,38.5495485 171.344089,39.281758 170.819733,39.9294401 C170.295004,40.5774834 169.62078,41.0846478 168.797807,41.4505719 C167.974461,41.8172185 167.059923,42 166.054566,42 C164.874299,42 163.825215,41.7568934 162.906939,41.2710415 C161.989037,40.7851896 161.275196,40.0916315 160.765043,39.190006 C160.25489,38.2887417 160,37.2256472 160,36 C160,34.774714 160.25489,33.7080072 160.765043,32.7995184 C161.275196,31.8910295 161.989037,31.1974714 162.906939,30.7184828 C163.825215,30.2398555 164.874299,30 166.054566,30 C167.249408,30 168.295129,30.2398555 169.191354,30.7184828 C170.087579,31.1974714 170.77937,31.8559904 171.267472,32.6940397 C171.755949,33.5320891 172,34.4864539 172,35.5564118 C172,35.8522577 171.963374,36.1903672 171.890495,36.5703793" id="Fill-23" fill="#FEFEFE"></path>
                <path d="M179.293825,30.6513326 C180.100766,30.2172326 181.003095,30 182,30 L182,33.2245345 L181.027043,33.2245345 C178.573748,33.2245345 177.3471,34.248996 177.3471,36.2990142 L177.3471,42 L174,42 L174,30.1708653 L177.3471,30.1708653 L177.3471,32.4341 C177.837435,31.6798101 178.486884,31.0857977 179.293825,30.6513326" id="Fill-25" fill="#FEFEFE"></path>
                <path d="M186.129961,33.5872162 C185.527948,34.2068229 185.227328,35.056242 185.227328,36.136582 C185.227328,37.2172914 185.527948,38.0637547 186.129961,38.6759719 C186.731974,39.2885586 187.529255,39.5944825 188.522575,39.5944825 C189.485024,39.5944825 190.278832,39.2807997 190.903613,38.654173 C191.527622,38.0275463 191.840205,37.1888419 191.840205,36.136582 C191.840205,35.071021 191.527622,34.2245577 190.903613,33.5979309 C190.278832,32.9713042 189.485024,32.6579909 188.522575,32.6579909 C187.529255,32.6579909 186.731974,32.967979 186.129961,33.5872162 M190.23754,30.7130835 C190.990056,31.1885956 191.524149,31.8296318 191.840205,32.6365614 L191.840205,30.1514841 L195,30.1514841 L195,42.1656472 C195,43.274806 194.770386,44.2723839 194.311545,45.1583809 C193.852317,46.0443778 193.16772,46.7389876 192.257755,47.2436882 C191.347018,47.7476497 190.245258,48 188.951317,48 C187.145664,48 185.68617,47.5895152 184.572832,46.768176 C183.459109,45.9468369 182.781845,44.8306581 182.541811,43.4189006 L185.678838,43.4189006 C185.859055,44.0240979 186.209072,44.4955458 186.728115,44.8343528 C187.247158,45.1727903 187.913231,45.3420091 188.725562,45.3420091 C189.658295,45.3420091 190.410425,45.0789441 190.982337,44.5535531 C191.554249,44.0274231 191.840205,43.2315777 191.840205,42.1656472 L191.840205,39.615912 C191.524149,40.4228417 190.990056,41.0672031 190.23754,41.5497352 C189.485024,42.0326368 188.582391,42.2739029 187.529255,42.2739029 C186.476118,42.2739029 185.527948,42.0289421 184.685517,41.5390205 C183.842699,41.0494684 183.18473,40.3397102 182.710838,39.4104848 C182.236946,38.481629 182,37.3902049 182,36.136582 C182,34.8833285 182.236946,33.7922739 182.710838,32.863418 C183.18473,31.9341927 183.842699,31.224804 184.685517,30.7348824 C185.527948,30.2453303 186.476118,30 187.529255,30 C188.582391,30 189.485024,30.2375713 190.23754,30.7130835" id="Fill-27" fill="#FEFEFE"></path>
                <path d="M205.120219,33.0845274 C204.559238,32.5918122 203.870437,32.3454545 203.05494,32.3454545 C202.224119,32.3454545 201.52448,32.5918122 200.956397,33.0845274 C200.387941,33.5776039 200.074374,34.30295 200.016444,35.2605659 L205.896101,35.2605659 C205.939828,34.30295 205.681201,33.5776039 205.120219,33.0845274 M208.890495,36.5703793 L200.016444,36.5703793 C200.060172,37.6128838 200.351314,38.3804937 200.890993,38.8732089 C201.42955,39.3666466 202.100037,39.612643 202.901707,39.612643 C203.615548,39.612643 204.209418,39.4435882 204.683319,39.1058399 C205.156472,38.7677303 205.458826,38.3100542 205.590382,37.7324503 L208.847141,37.7324503 C208.686433,38.5495485 208.344089,39.281758 207.819733,39.9294401 C207.295004,40.5774834 206.62078,41.0846478 205.797807,41.4505719 C204.974461,41.8172185 204.059923,42 203.05494,42 C201.874299,42 200.825215,41.7568934 199.906939,41.2710415 C198.989037,40.7851896 198.275196,40.0916315 197.765043,39.190006 C197.25489,38.2887417 197,37.2256472 197,36 C197,34.774714 197.25489,33.7080072 197.765043,32.7995184 C198.275196,31.8910295 198.989037,31.1974714 199.906939,30.7184828 C200.825215,30.2398555 201.874299,30 203.05494,30 C204.249408,30 205.295129,30.2398555 206.191354,30.7184828 C207.087579,31.1974714 207.77937,31.8559904 208.267846,32.6940397 C208.755949,33.5320891 209,34.4864539 209,35.5564118 C209,35.8522577 208.963374,36.1903672 208.890495,36.5703793" id="Fill-29" fill="#FEFEFE"></path>
                <mask id="mask-2" fill="white">
                    <use xlink:href="#path-1"></use>
                </mask>
                <g id="Clip-32"></g>
                <polygon id="Fill-31" fill="#3A9DC3" mask="url(#mask-2)" points="10 38 43 38 43 0 10 0"></polygon>
                <polygon id="Fill-33" fill="#00518C" mask="url(#mask-2)" points="43 38.3962538 43 48 0 48 0 0 9.82554011 0 9.82554011 38.3962538"></polygon>
                <path d="M26.4124958,35.5547802 C26.0284847,35.0365661 25.6681279,34.5510387 25.5494873,34.4000918 C24.4680471,33.1139217 23.2683359,31.9261793 21.9643984,30.8658786 C22.6662627,30.375944 23.457939,30.0883737 24.3353618,30.0318145 C24.8143593,29.9895788 25.288552,30.0222656 25.7390904,30.1214278 C26.5359411,30.2958797 27.2422406,30.6491909 27.8446834,31.1629978 C28.0390913,31.332308 28.2146498,31.50676 28.375794,31.6951681 C27.4983712,32.8733616 26.8441849,34.1646735 26.4124958,35.5547802 M22.9552874,23.721795 C23.4250449,23.26014 24.0507723,23.0056238 24.7193729,23.0056238 L24.7289824,23.0056238 C26.0805979,23.0151727 27.1808875,24.1129347 27.1808875,25.4703546 C27.1808875,26.8226328 26.0661836,27.9299438 24.7053282,27.9299438 C24.0415324,27.9299438 23.4202402,27.6710203 22.9460475,27.208998 C22.4810947,26.7377941 22.2249641,26.1204178 22.2249641,25.4703546 C22.2249641,24.8059681 22.4907042,24.1885918 22.9552874,23.721795 M39.2641156,14.2782509 C40.672649,14.2877998 41.9717817,14.7872834 42.996304,15.6165729 L42.996304,12.6196718 C42.1661896,12.2094342 41.2747222,11.9409618 40.321532,11.8182945 C40.1651926,11.7995639 40.0036788,11.7808332 39.8473393,11.7621026 L39.5771641,11.7382302 L38.7851181,11.7382302 L38.5101381,11.7712843 C38.2965112,11.7947894 38.0928633,11.8138873 37.8888459,11.8513486 C36.1295652,12.1249627 34.6168055,12.8550901 33.3882657,14.0193274 C31.1263333,16.1678412 30.2633248,18.797475 30.8036753,21.8417537 C31.1644018,23.8914725 32.2218182,25.6209342 33.9478353,26.9688052 C34.0428217,27.044095 34.137808,27.1102031 34.2276201,27.1807185 C32.6912062,27.7933203 31.3159365,28.6512567 30.1258348,29.7537932 C29.9975847,29.8669115 29.8697042,29.9848043 29.7462589,30.1071043 C29.2199531,29.5466544 28.5986609,29.070676 27.9112108,28.7078159 C27.9681287,28.6512567 28.0294818,28.5899231 28.0819645,28.523815 C29.0965077,27.392999 29.4712789,26.0638586 29.1866894,24.574957 C28.973432,23.467646 28.3946434,22.5531505 27.4558676,21.8417537 C26.8297706,21.3610008 26.0994473,21.0642488 25.3029662,20.9606794 L24.524965,20.9228509 L24.3165124,20.9415815 C24.2119165,20.946356 24.1076902,20.9606794 23.9986591,20.9794101 C23.0598833,21.1255825 22.2534231,21.5167221 21.5896272,22.1385057 C20.4039607,23.269689 19.929768,24.7068059 20.2143575,26.3091932 C20.3755017,27.2420521 20.8119956,28.0478366 21.5042504,28.7078159 C21.0489071,28.9432342 20.6220228,29.2308045 20.233207,29.5653851 C20.2239671,29.5606106 20.2191623,29.5558361 20.2095528,29.5510616 C20.0011002,29.4096637 19.8018875,29.2730403 19.5882606,29.1316424 C19.4082669,29.0232985 19.2279037,28.9009985 19.0431053,28.7970619 C17.7720619,28.0151498 16.430056,27.3456215 15.0359368,26.7991277 C14.4431036,26.5681166 13.8454656,26.3562034 13.2337829,26.1299667 C13.2999407,26.087731 13.3524234,26.0546769 13.4045366,26.0216229 C14.902882,25.1592792 16.2496927,24.1129347 17.3928556,22.8311718 C21.105825,18.6843567 22.4714852,13.8540572 21.4332878,8.41629749 C20.7975813,5.09877195 19.2563627,2.28991163 16.9230981,0 L11.3843205,0 C15.5714826,2.23335246 18.4454673,6.63945828 18.4406625,11.6816711 C18.4406625,17.327304 14.8555736,22.1576036 9.82868759,24.0471938 C8.36323629,24.6032365 6.77470926,24.904763 5.11485006,24.904763 C3.30826092,24.904763 1.57854791,24.5404338 0.00406556475,23.8855962 L0,28.7709859 C1.08107063,28.5352003 2.19836174,28.3732354 3.33191511,28.2836222 C5.52288492,28.1187192 7.68983093,28.2457936 9.82868759,28.6839435 C9.92847872,28.7030414 10.032705,28.7217721 10.1321266,28.7452772 C12.9255391,29.357879 15.4909105,30.4229542 17.8289798,31.9496844 C18.1372236,32.1476415 18.4454673,32.3643292 18.7489063,32.5813841 C19.2707769,32.9582004 19.7826685,33.3636635 20.2853201,33.78749 C21.9026757,35.1731895 23.2919901,36.7094686 24.435153,38.3963273 C25.9334984,40.587444 27.0289833,43.0286698 27.7168029,45.7148628 C27.9112108,46.4684954 28.0342865,47.241593 28.1909956,48 L31.5484129,48 L31.5011045,47.7363021 C31.354005,46.9540227 31.2401692,46.1717434 31.0646107,45.399013 C30.5098459,42.9390566 29.5851147,40.587444 28.3425303,38.415058 C28.3425303,38.415058 28.3425303,38.4106508 28.3377255,38.4106508 L28.3236808,38.3963273 L28.3709892,38.3963273 L28.484825,37.7884999 C28.5180888,37.6092735 28.5465477,37.4304143 28.5890513,37.2511879 C28.864401,36.0590382 29.3005252,34.9656835 29.9074031,33.985447 C30.0448931,33.7404797 30.1967974,33.5142431 30.3627464,33.2880064 C30.5479144,33.029083 30.747127,32.7837484 30.9603844,32.5387811 C31.1074839,32.359922 31.2686281,32.1902445 31.4441866,32.020567 C31.8707013,31.5868243 32.3356541,31.1912774 32.8383057,30.8188684 C34.4649012,29.6454493 36.3239731,28.9619649 38.3726481,28.8018363 C39.4441092,28.7217721 40.5159399,28.7878802 41.545267,29.018524 C42.0431139,29.1272352 42.5306121,29.2701021 43,29.4445541 L43,24.8919086 C41.9662378,25.7307472 40.64419,26.2335361 39.2071977,26.2335361 L39.2023929,26.2335361 C37.5994516,26.2335361 36.0914967,25.6069781 34.9535082,24.4757948 C33.8199548,23.3402043 33.1938578,21.8417537 33.1938578,20.2536899 C33.1938578,18.6560771 33.8247595,17.1480776 34.9627481,16.022036 C36.1199556,14.8908527 37.6186707,14.2830254 39.2641156,14.2782509" id="Fill-34" fill="#FEFEFE" mask="url(#mask-2)"></path>
            </g>
        </g>
    </g>
</svg>