2019-07-23 06:59:37 [-][1][-][info][yii\db\Connection::open] Opening DB connection: mysql:host=localhost;dbname=gmf;port=3306;
2019-07-23 06:59:37 [-][1][-][profile begin][yii\db\Connection::open] Opening DB connection: mysql:host=localhost;dbname=gmf;port=3306;
2019-07-23 06:59:37 [-][1][-][profile end][yii\db\Connection::open] Opening DB connection: mysql:host=localhost;dbname=gmf;port=3306;
2019-07-23 06:59:37 [-][1][-][info][yii\db\Command::query] SHOW TABLES
2019-07-23 06:59:37 [-][1][-][profile begin][yii\db\Command::query] SHOW TABLES
2019-07-23 06:59:37 [-][1][-][profile end][yii\db\Command::query] SHOW TABLES
2019-07-23 06:59:37 [-][1][-][info][yii\db\Command::query] SELECT `s`.`id`, `s`.`groupId`, `s`.`name`, `s`.`handle`, `language`, `s`.`primary`, `s`.`hasUrls`, `s`.`baseUrl`, `s`.`sortOrder`, `s`.`uid`
FROM `gmf_sites` `s`
INNER JOIN `gmf_sitegroups` `sg` ON `sg`.`id` = `s`.`groupId`
WHERE (`s`.`dateDeleted` IS NULL) AND (`sg`.`dateDeleted` IS NULL)
ORDER BY `sg`.`name`, `s`.`sortOrder`
2019-07-23 06:59:37 [-][1][-][profile begin][yii\db\Command::query] SELECT `s`.`id`, `s`.`groupId`, `s`.`name`, `s`.`handle`, `language`, `s`.`primary`, `s`.`hasUrls`, `s`.`baseUrl`, `s`.`sortOrder`, `s`.`uid`
FROM `gmf_sites` `s`
INNER JOIN `gmf_sitegroups` `sg` ON `sg`.`id` = `s`.`groupId`
WHERE (`s`.`dateDeleted` IS NULL) AND (`sg`.`dateDeleted` IS NULL)
ORDER BY `sg`.`name`, `s`.`sortOrder`
2019-07-23 06:59:37 [-][1][-][profile end][yii\db\Command::query] SELECT `s`.`id`, `s`.`groupId`, `s`.`name`, `s`.`handle`, `language`, `s`.`primary`, `s`.`hasUrls`, `s`.`baseUrl`, `s`.`sortOrder`, `s`.`uid`
FROM `gmf_sites` `s`
INNER JOIN `gmf_sitegroups` `sg` ON `sg`.`id` = `s`.`groupId`
WHERE (`s`.`dateDeleted` IS NULL) AND (`sg`.`dateDeleted` IS NULL)
ORDER BY `sg`.`name`, `s`.`sortOrder`
2019-07-23 06:59:37 [-][1][-][info][yii\db\Command::query] SELECT *
FROM `gmf_info`
LIMIT 1
2019-07-23 06:59:37 [-][1][-][profile begin][yii\db\Command::query] SELECT *
FROM `gmf_info`
LIMIT 1
2019-07-23 06:59:37 [-][1][-][profile end][yii\db\Command::query] SELECT *
FROM `gmf_info`
LIMIT 1
2019-07-23 06:59:37 [-][1][-][info][yii\web\Session::open] Session started
2019-07-23 06:59:37 [-][1][-][info][yii\db\Command::query] SELECT `preferences`
FROM `gmf_userpreferences`
WHERE `userId`=1
LIMIT 1
2019-07-23 06:59:37 [-][1][-][profile begin][yii\db\Command::query] SELECT `preferences`
FROM `gmf_userpreferences`
WHERE `userId`=1
LIMIT 1
2019-07-23 06:59:37 [-][1][-][profile end][yii\db\Command::query] SELECT `preferences`
FROM `gmf_userpreferences`
WHERE `userId`=1
LIMIT 1
2019-07-23 06:59:37 [-][1][-][info][yii\db\Command::query] SELECT `id`, `handle`, `version`, `schemaVersion`, `licenseKeyStatus`, `installDate`, `licensedEdition`
FROM `gmf_plugins`
2019-07-23 06:59:37 [-][1][-][profile begin][yii\db\Command::query] SELECT `id`, `handle`, `version`, `schemaVersion`, `licenseKeyStatus`, `installDate`, `licensedEdition`
FROM `gmf_plugins`
2019-07-23 06:59:37 [-][1][-][profile end][yii\db\Command::query] SELECT `id`, `handle`, `version`, `schemaVersion`, `licenseKeyStatus`, `installDate`, `licensedEdition`
FROM `gmf_plugins`
2019-07-23 06:59:38 [-][1][-][info][yii\db\Command::query] SELECT `id`
FROM `gmf_sessions`
WHERE (`token`='0tMrS_201XQT-dUmkM1N8HKNo0P5DbjJm0LLUpVGPvRytZSQayqflOiEOjOWg2ajcBhiBxmFtXk-ZNfObcBYDh66CkEmAbj9puuj') AND (`userId`='1')
LIMIT 1
2019-07-23 06:59:38 [-][1][-][profile begin][yii\db\Command::query] SELECT `id`
FROM `gmf_sessions`
WHERE (`token`='0tMrS_201XQT-dUmkM1N8HKNo0P5DbjJm0LLUpVGPvRytZSQayqflOiEOjOWg2ajcBhiBxmFtXk-ZNfObcBYDh66CkEmAbj9puuj') AND (`userId`='1')
LIMIT 1
2019-07-23 06:59:38 [-][1][-][profile end][yii\db\Command::query] SELECT `id`
FROM `gmf_sessions`
WHERE (`token`='0tMrS_201XQT-dUmkM1N8HKNo0P5DbjJm0LLUpVGPvRytZSQayqflOiEOjOWg2ajcBhiBxmFtXk-ZNfObcBYDh66CkEmAbj9puuj') AND (`userId`='1')
LIMIT 1
2019-07-23 06:59:38 [-][1][-][info][yii\db\Command::query] SHOW FULL COLUMNS FROM `gmf_sessions`
2019-07-23 06:59:38 [-][1][-][profile begin][yii\db\Command::query] SHOW FULL COLUMNS FROM `gmf_sessions`
2019-07-23 06:59:38 [-][1][-][profile end][yii\db\Command::query] SHOW FULL COLUMNS FROM `gmf_sessions`
2019-07-23 06:59:38 [-][1][-][info][yii\db\Command::query] SELECT
    kcu.constraint_name,
    kcu.column_name,
    kcu.referenced_table_name,
    kcu.referenced_column_name
FROM information_schema.referential_constraints AS rc
JOIN information_schema.key_column_usage AS kcu ON
    (
        kcu.constraint_catalog = rc.constraint_catalog OR
        (kcu.constraint_catalog IS NULL AND rc.constraint_catalog IS NULL)
    ) AND
    kcu.constraint_schema = rc.constraint_schema AND
    kcu.constraint_name = rc.constraint_name
WHERE rc.constraint_schema = database() AND kcu.table_schema = database()
AND rc.table_name = 'gmf_sessions' AND kcu.table_name = 'gmf_sessions'
2019-07-23 06:59:38 [-][1][-][profile begin][yii\db\Command::query] SELECT
    kcu.constraint_name,
    kcu.column_name,
    kcu.referenced_table_name,
    kcu.referenced_column_name
FROM information_schema.referential_constraints AS rc
JOIN information_schema.key_column_usage AS kcu ON
    (
        kcu.constraint_catalog = rc.constraint_catalog OR
        (kcu.constraint_catalog IS NULL AND rc.constraint_catalog IS NULL)
    ) AND
    kcu.constraint_schema = rc.constraint_schema AND
    kcu.constraint_name = rc.constraint_name
WHERE rc.constraint_schema = database() AND kcu.table_schema = database()
AND rc.table_name = 'gmf_sessions' AND kcu.table_name = 'gmf_sessions'
2019-07-23 06:59:38 [-][1][-][profile end][yii\db\Command::query] SELECT
    kcu.constraint_name,
    kcu.column_name,
    kcu.referenced_table_name,
    kcu.referenced_column_name
FROM information_schema.referential_constraints AS rc
JOIN information_schema.key_column_usage AS kcu ON
    (
        kcu.constraint_catalog = rc.constraint_catalog OR
        (kcu.constraint_catalog IS NULL AND rc.constraint_catalog IS NULL)
    ) AND
    kcu.constraint_schema = rc.constraint_schema AND
    kcu.constraint_name = rc.constraint_name
WHERE rc.constraint_schema = database() AND kcu.table_schema = database()
AND rc.table_name = 'gmf_sessions' AND kcu.table_name = 'gmf_sessions'
2019-07-23 06:59:38 [-][1][-][info][yii\db\Command::query] SELECT
    kcu.constraint_name,
    kcu.column_name,
    kcu.referenced_table_name,
    kcu.referenced_column_name,
    rc.UPDATE_RULE,
    rc.DELETE_RULE
FROM information_schema.referential_constraints AS rc
JOIN information_schema.key_column_usage AS kcu ON
    (
        kcu.constraint_catalog = rc.constraint_catalog OR
        (kcu.constraint_catalog IS NULL AND rc.constraint_catalog IS NULL)
    ) AND
    kcu.constraint_schema = rc.constraint_schema AND
    kcu.constraint_name = rc.constraint_name
WHERE rc.constraint_schema = database() AND kcu.table_schema = database()
AND rc.table_name = 'gmf_sessions' AND kcu.table_name = 'gmf_sessions'
2019-07-23 06:59:38 [-][1][-][profile begin][yii\db\Command::query] SELECT
    kcu.constraint_name,
    kcu.column_name,
    kcu.referenced_table_name,
    kcu.referenced_column_name,
    rc.UPDATE_RULE,
    rc.DELETE_RULE
FROM information_schema.referential_constraints AS rc
JOIN information_schema.key_column_usage AS kcu ON
    (
        kcu.constraint_catalog = rc.constraint_catalog OR
        (kcu.constraint_catalog IS NULL AND rc.constraint_catalog IS NULL)
    ) AND
    kcu.constraint_schema = rc.constraint_schema AND
    kcu.constraint_name = rc.constraint_name
WHERE rc.constraint_schema = database() AND kcu.table_schema = database()
AND rc.table_name = 'gmf_sessions' AND kcu.table_name = 'gmf_sessions'
2019-07-23 06:59:38 [-][1][-][profile end][yii\db\Command::query] SELECT
    kcu.constraint_name,
    kcu.column_name,
    kcu.referenced_table_name,
    kcu.referenced_column_name,
    rc.UPDATE_RULE,
    rc.DELETE_RULE
FROM information_schema.referential_constraints AS rc
JOIN information_schema.key_column_usage AS kcu ON
    (
        kcu.constraint_catalog = rc.constraint_catalog OR
        (kcu.constraint_catalog IS NULL AND rc.constraint_catalog IS NULL)
    ) AND
    kcu.constraint_schema = rc.constraint_schema AND
    kcu.constraint_name = rc.constraint_name
WHERE rc.constraint_schema = database() AND kcu.table_schema = database()
AND rc.table_name = 'gmf_sessions' AND kcu.table_name = 'gmf_sessions'
2019-07-23 06:59:38 [-][1][-][info][yii\db\Command::execute] UPDATE `gmf_sessions` SET `dateUpdated`='2019-07-23 13:59:38' WHERE `id`='41'
2019-07-23 06:59:38 [-][1][-][profile begin][yii\db\Command::execute] UPDATE `gmf_sessions` SET `dateUpdated`='2019-07-23 13:59:38' WHERE `id`='41'
2019-07-23 06:59:38 [-][1][-][profile end][yii\db\Command::execute] UPDATE `gmf_sessions` SET `dateUpdated`='2019-07-23 13:59:38' WHERE `id`='41'
2019-07-23 06:59:38 [-][1][-][info][yii\db\Command::query] SELECT `fields`.`id`, `fields`.`dateCreated`, `fields`.`dateUpdated`, `fields`.`groupId`, `fields`.`name`, `fields`.`handle`, `fields`.`context`, `fields`.`instructions`, `fields`.`translationMethod`, `fields`.`translationKeyFormat`, `fields`.`type`, `fields`.`settings`, `fields`.`uid`, `fields`.`searchable`
FROM `gmf_fields` `fields`
ORDER BY `fields`.`name`, `fields`.`handle`
2019-07-23 06:59:38 [-][1][-][profile begin][yii\db\Command::query] SELECT `fields`.`id`, `fields`.`dateCreated`, `fields`.`dateUpdated`, `fields`.`groupId`, `fields`.`name`, `fields`.`handle`, `fields`.`context`, `fields`.`instructions`, `fields`.`translationMethod`, `fields`.`translationKeyFormat`, `fields`.`type`, `fields`.`settings`, `fields`.`uid`, `fields`.`searchable`
FROM `gmf_fields` `fields`
ORDER BY `fields`.`name`, `fields`.`handle`
2019-07-23 06:59:38 [-][1][-][profile end][yii\db\Command::query] SELECT `fields`.`id`, `fields`.`dateCreated`, `fields`.`dateUpdated`, `fields`.`groupId`, `fields`.`name`, `fields`.`handle`, `fields`.`context`, `fields`.`instructions`, `fields`.`translationMethod`, `fields`.`translationKeyFormat`, `fields`.`type`, `fields`.`settings`, `fields`.`uid`, `fields`.`searchable`
FROM `gmf_fields` `fields`
ORDER BY `fields`.`name`, `fields`.`handle`
2019-07-23 06:59:38 [-][1][-][info][yii\db\Command::query] SELECT `users`.`password`, `elements`.`id`, `elements`.`fieldLayoutId`, `elements`.`uid`, `elements`.`enabled`, `elements`.`archived`, `elements`.`dateCreated`, `elements`.`dateUpdated`, `elements_sites`.`slug`, `elements_sites`.`uri`, `elements_sites`.`enabled` AS `enabledForSite`, `users`.`username`, `users`.`firstName`, `users`.`lastName`, `users`.`email`, `users`.`admin`, `users`.`locked`, `users`.`pending`, `users`.`suspended`, `users`.`lastLoginDate`, `users`.`lockoutDate`, `users`.`photoId`, `users`.`hasDashboard`, `content`.`id` AS `contentId`, `content`.`field_adressStreet`, `content`.`field_adressTitle`, `content`.`field_adressCity`, `content`.`field_aboutBiographyText`, `content`.`field_aboutBiographyTitle`, `content`.`field_optEmail`, `content`.`field_contactFax`, `content`.`field_optPhone`, `content`.`field_contactTitle`, `content`.`field_aboutContentText`, `content`.`field_careerContentText`, `content`.`field_contentText`, `content`.`field_aboutContentTitle`, `content`.`field_careerContentTitle`, `content`.`field_contentTitle`, `content`.`field_copyright`, `content`.`field_careerHeaderText`, `content`.`field_aboutBannerTitle`, `content`.`field_careerHeaderTitle`, `content`.`field_homeBannerTitle`, `content`.`field_servicesBannerTitle`, `content`.`field_hoursWeekend`, `content`.`field_hoursWeek`, `content`.`field_hoursTitle`, `content`.`field_footerLink`, `content`.`field_footerInfo`, `content`.`field_footerTitle`, `content`.`field_menuPage`, `content`.`field_partnersText`, `content`.`field_partnersTitle`, `content`.`field_seo`
FROM (SELECT `elements`.`id` AS `elementsId`, `elements_sites`.`id` AS `elementsSitesId`, `content`.`id` AS `contentId`
FROM `gmf_elements` `elements`
INNER JOIN `gmf_users` `users` ON `users`.`id` = `elements`.`id`
INNER JOIN `gmf_elements_sites` `elements_sites` ON `elements_sites`.`elementId` = `elements`.`id`
INNER JOIN `gmf_content` `content` ON `content`.`elementId` = `elements`.`id`
WHERE (`elements_sites`.`siteId`='1') AND (`content`.`siteId`='1') AND (`elements`.`id`='1') AND (`elements`.`archived`=FALSE) AND (`elements`.`dateDeleted` IS NULL)
ORDER BY `users`.`username`
LIMIT 1) `subquery`
INNER JOIN `gmf_users` `users` ON `users`.`id` = `subquery`.`elementsId`
INNER JOIN `gmf_elements` `elements` ON `elements`.`id` = `subquery`.`elementsId`
INNER JOIN `gmf_elements_sites` `elements_sites` ON `elements_sites`.`id` = `subquery`.`elementsSitesId`
INNER JOIN `gmf_content` `content` ON `content`.`id` = `subquery`.`contentId`
ORDER BY `users`.`username`
2019-07-23 06:59:38 [-][1][-][profile begin][yii\db\Command::query] SELECT `users`.`password`, `elements`.`id`, `elements`.`fieldLayoutId`, `elements`.`uid`, `elements`.`enabled`, `elements`.`archived`, `elements`.`dateCreated`, `elements`.`dateUpdated`, `elements_sites`.`slug`, `elements_sites`.`uri`, `elements_sites`.`enabled` AS `enabledForSite`, `users`.`username`, `users`.`firstName`, `users`.`lastName`, `users`.`email`, `users`.`admin`, `users`.`locked`, `users`.`pending`, `users`.`suspended`, `users`.`lastLoginDate`, `users`.`lockoutDate`, `users`.`photoId`, `users`.`hasDashboard`, `content`.`id` AS `contentId`, `content`.`field_adressStreet`, `content`.`field_adressTitle`, `content`.`field_adressCity`, `content`.`field_aboutBiographyText`, `content`.`field_aboutBiographyTitle`, `content`.`field_optEmail`, `content`.`field_contactFax`, `content`.`field_optPhone`, `content`.`field_contactTitle`, `content`.`field_aboutContentText`, `content`.`field_careerContentText`, `content`.`field_contentText`, `content`.`field_aboutContentTitle`, `content`.`field_careerContentTitle`, `content`.`field_contentTitle`, `content`.`field_copyright`, `content`.`field_careerHeaderText`, `content`.`field_aboutBannerTitle`, `content`.`field_careerHeaderTitle`, `content`.`field_homeBannerTitle`, `content`.`field_servicesBannerTitle`, `content`.`field_hoursWeekend`, `content`.`field_hoursWeek`, `content`.`field_hoursTitle`, `content`.`field_footerLink`, `content`.`field_footerInfo`, `content`.`field_footerTitle`, `content`.`field_menuPage`, `content`.`field_partnersText`, `content`.`field_partnersTitle`, `content`.`field_seo`
FROM (SELECT `elements`.`id` AS `elementsId`, `elements_sites`.`id` AS `elementsSitesId`, `content`.`id` AS `contentId`
FROM `gmf_elements` `elements`
INNER JOIN `gmf_users` `users` ON `users`.`id` = `elements`.`id`
INNER JOIN `gmf_elements_sites` `elements_sites` ON `elements_sites`.`elementId` = `elements`.`id`
INNER JOIN `gmf_content` `content` ON `content`.`elementId` = `elements`.`id`
WHERE (`elements_sites`.`siteId`='1') AND (`content`.`siteId`='1') AND (`elements`.`id`='1') AND (`elements`.`archived`=FALSE) AND (`elements`.`dateDeleted` IS NULL)
ORDER BY `users`.`username`
LIMIT 1) `subquery`
INNER JOIN `gmf_users` `users` ON `users`.`id` = `subquery`.`elementsId`
INNER JOIN `gmf_elements` `elements` ON `elements`.`id` = `subquery`.`elementsId`
INNER JOIN `gmf_elements_sites` `elements_sites` ON `elements_sites`.`id` = `subquery`.`elementsSitesId`
INNER JOIN `gmf_content` `content` ON `content`.`id` = `subquery`.`contentId`
ORDER BY `users`.`username`
2019-07-23 06:59:38 [-][1][-][profile end][yii\db\Command::query] SELECT `users`.`password`, `elements`.`id`, `elements`.`fieldLayoutId`, `elements`.`uid`, `elements`.`enabled`, `elements`.`archived`, `elements`.`dateCreated`, `elements`.`dateUpdated`, `elements_sites`.`slug`, `elements_sites`.`uri`, `elements_sites`.`enabled` AS `enabledForSite`, `users`.`username`, `users`.`firstName`, `users`.`lastName`, `users`.`email`, `users`.`admin`, `users`.`locked`, `users`.`pending`, `users`.`suspended`, `users`.`lastLoginDate`, `users`.`lockoutDate`, `users`.`photoId`, `users`.`hasDashboard`, `content`.`id` AS `contentId`, `content`.`field_adressStreet`, `content`.`field_adressTitle`, `content`.`field_adressCity`, `content`.`field_aboutBiographyText`, `content`.`field_aboutBiographyTitle`, `content`.`field_optEmail`, `content`.`field_contactFax`, `content`.`field_optPhone`, `content`.`field_contactTitle`, `content`.`field_aboutContentText`, `content`.`field_careerContentText`, `content`.`field_contentText`, `content`.`field_aboutContentTitle`, `content`.`field_careerContentTitle`, `content`.`field_contentTitle`, `content`.`field_copyright`, `content`.`field_careerHeaderText`, `content`.`field_aboutBannerTitle`, `content`.`field_careerHeaderTitle`, `content`.`field_homeBannerTitle`, `content`.`field_servicesBannerTitle`, `content`.`field_hoursWeekend`, `content`.`field_hoursWeek`, `content`.`field_hoursTitle`, `content`.`field_footerLink`, `content`.`field_footerInfo`, `content`.`field_footerTitle`, `content`.`field_menuPage`, `content`.`field_partnersText`, `content`.`field_partnersTitle`, `content`.`field_seo`
FROM (SELECT `elements`.`id` AS `elementsId`, `elements_sites`.`id` AS `elementsSitesId`, `content`.`id` AS `contentId`
FROM `gmf_elements` `elements`
INNER JOIN `gmf_users` `users` ON `users`.`id` = `elements`.`id`
INNER JOIN `gmf_elements_sites` `elements_sites` ON `elements_sites`.`elementId` = `elements`.`id`
INNER JOIN `gmf_content` `content` ON `content`.`elementId` = `elements`.`id`
WHERE (`elements_sites`.`siteId`='1') AND (`content`.`siteId`='1') AND (`elements`.`id`='1') AND (`elements`.`archived`=FALSE) AND (`elements`.`dateDeleted` IS NULL)
ORDER BY `users`.`username`
LIMIT 1) `subquery`
INNER JOIN `gmf_users` `users` ON `users`.`id` = `subquery`.`elementsId`
INNER JOIN `gmf_elements` `elements` ON `elements`.`id` = `subquery`.`elementsId`
INNER JOIN `gmf_elements_sites` `elements_sites` ON `elements_sites`.`id` = `subquery`.`elementsSitesId`
INNER JOIN `gmf_content` `content` ON `content`.`id` = `subquery`.`contentId`
ORDER BY `users`.`username`
2019-07-23 06:59:38 [-][1][-][trace][craft\web\Application::_processActionRequest] Route requested: 'dashboard/get-feed-items'
2019-07-23 06:59:38 [-][1][-][trace][yii\base\Controller::runAction] Route to run: dashboard/get-feed-items
2019-07-23 06:59:38 [-][1][-][trace][yii\base\InlineAction::runWithParams] Running action: craft\controllers\DashboardController::actionGetFeedItems()
2019-07-23 06:59:37 [-][1][-][info][application] $_GET = [
    'p' => 'admin/actions/dashboard/get-feed-items'
]

$_POST = [
    'url' => 'https://craftcms.com/news.rss'
    'limit' => '5'
]

$_FILES = []

$_COOKIE = [
    '1031b8c41dfff97a311a7ac99863bdc5_username' => 'eabefa505a5d6e11db60d96e201edf6390adf93d6a801bc67bee26f7db35ff77a:2:{i:0;s:41:\"1031b8c41dfff97a311a7ac99863bdc5_username\";i:1;s:9:\"agencezel\";}'
    'CraftSessionId' => 'l5e6o7ojav44qhivbdtes99pqp'
    '1031b8c41dfff97a311a7ac99863bdc5_identity' => 'e33b6c13d7728383012ffe00819cca4281338970059635d061de0d8c15bd3bdea:2:{i:0;s:41:\"1031b8c41dfff97a311a7ac99863bdc5_identity\";i:1;s:250:\"[\"1\",\"[\\\"0tMrS_201XQT-dUmkM1N8HKNo0P5DbjJm0LLUpVGPvRytZSQayqflOiEOjOWg2ajcBhiBxmFtXk-ZNfObcBYDh66CkEmAbj9puuj\\\",null,\\\"Mozilla/5.0 (Macintosh; Intel Mac OS X 10_14_5) AppleWebKit/537.36 (KHTML, like Gecko) Chrome/75.0.3770.142 Safari/537.36\\\"]\",3600]\";}'
    'CRAFT_CSRF_TOKEN' => '•••••••••••••••••••••••••••••••••••••••••••••••••••••••••••••••••••••••••••••••••••••••••••••••••••••••••••••••••••••••••••••••••••••••••••••••••••••••••••••••••••••••••••••••••••••••••••••••••••••••••••••••••••••••••••••••••••••••••••••••••••••••••••••••••••••••••••••••••••••••••••••••••••••••••••••••••••••••••••••••'
]

$_SESSION = [
    'bd62416aa8538ede709019a5e113eea5__flash' => []
    '1031b8c41dfff97a311a7ac99863bdc5__token' => '••••••••••••••••••••••••••••••••••••••••••••••••••••••••••••••••••••••••••••••••••••••••••••••••••••'
    '1031b8c41dfff97a311a7ac99863bdc5__id' => '1'
    '1031b8c41dfff97a311a7ac99863bdc5__expire' => 1563893978
]

$_SERVER = [
    'USER' => 'vagrant'
    'HOME' => '/home/vagrant'
    'HTTP_COOKIE' => '1031b8c41dfff97a311a7ac99863bdc5_username=eabefa505a5d6e11db60d96e201edf6390adf93d6a801bc67bee26f7db35ff77a%3A2%3A%7Bi%3A0%3Bs%3A41%3A%221031b8c41dfff97a311a7ac99863bdc5_username%22%3Bi%3A1%3Bs%3A9%3A%22agencezel%22%3B%7D; CraftSessionId=l5e6o7ojav44qhivbdtes99pqp; 1031b8c41dfff97a311a7ac99863bdc5_identity=e33b6c13d7728383012ffe00819cca4281338970059635d061de0d8c15bd3bdea%3A2%3A%7Bi%3A0%3Bs%3A41%3A%221031b8c41dfff97a311a7ac99863bdc5_identity%22%3Bi%3A1%3Bs%3A250%3A%22%5B%221%22%2C%22%5B%5C%220tMrS_201XQT-dUmkM1N8HKNo0P5DbjJm0LLUpVGPvRytZSQayqflOiEOjOWg2ajcBhiBxmFtXk-ZNfObcBYDh66CkEmAbj9puuj%5C%22%2Cnull%2C%5C%22Mozilla%2F5.0+%28Macintosh%3B+Intel+Mac+OS+X+10_14_5%29+AppleWebKit%2F537.36+%28KHTML%2C+like+Gecko%29+Chrome%2F75.0.3770.142+Safari%2F537.36%5C%22%5D%22%2C3600%5D%22%3B%7D; CRAFT_CSRF_TOKEN=8abb112dd8c912015535e3d4f71cce512d01577ee11b43a086a6758a39d4a56ba%3A2%3A%7Bi%3A0%3Bs%3A16%3A%22CRAFT_CSRF_TOKEN%22%3Bi%3A1%3Bs%3A208%3A%22YByQvtpEY8ialh15Ts_Un25yqDnXoZRA0VyyvJL5%7C0e8e686925af4baeee87a1e32b0108bc10468bb3b88ad85902cdff6acf3de2c3YByQvtpEY8ialh15Ts_Un25yqDnXoZRA0VyyvJL5%7C1%7C%242y%2413%24MWIAJv.kukJykA8W1dlAuuSt0oM9fT1MR6PpzHcTCLYS8QV8tg6zy%22%3B%7D'
    'HTTP_ACCEPT_LANGUAGE' => 'fr-CA,fr;q=0.9,en-US;q=0.8,en;q=0.7'
    'HTTP_ACCEPT_ENCODING' => 'gzip, deflate'
    'HTTP_REFERER' => 'http://gmf.test/admin/dashboard'
    'HTTP_USER_AGENT' => 'Mozilla/5.0 (Macintosh; Intel Mac OS X 10_14_5) AppleWebKit/537.36 (KHTML, like Gecko) Chrome/75.0.3770.142 Safari/537.36'
    'HTTP_X_REQUESTED_WITH' => 'XMLHttpRequest'
    'HTTP_ACCEPT' => 'application/json, text/javascript, */*; q=0.01'
    'HTTP_X_REGISTERED_JS_FILES' => ',http://gmf.test/cpresources/ea4430cc/d3.js?v=1562692962,http://gmf.test/cpresources/47db87ef/element-resize-detector.js?v=1562692962,http://gmf.test/cpresources/684b2c1a/jquery.js?v=1562692962,http://gmf.test/cpresources/e3452c5f/jquery.mobile-events.min.js?v=1562692962,http://gmf.test/cpresources/79c4db67/velocity.js?v=1562692962,http://gmf.test/cpresources/d9f9274a/garnish.js?v=1562692962,http://gmf.test/cpresources/376d40c2/jquery-ui.min.js?v=1562692962,http://gmf.test/cpresources/65e3748f/jquery.payment.js?v=1562692963,http://gmf.test/cpresources/a93c9a05/datepicker-fr.js?v=1562693006,http://gmf.test/cpresources/e4e1109d/picturefill.js?v=1562692963,http://gmf.test/cpresources/b09f3d19/selectize.js?v=1562692963,http://gmf.test/cpresources/fc091163/jquery.fileupload.js?v=1562692963,http://gmf.test/cpresources/baf37993/xregexp-all.js?v=1562692963,http://gmf.test/cpresources/ccbff374/fabric.js?v=1562692963,http://gmf.test/cpresources/cc0e6fd/js/Craft.min.js?v=1562692961,http://gmf.test/cpresources/118dc170/RecentEntriesWidget.min.js?v=1562693006,http://gmf.test/cpresources/21a52fdf/CraftSupportWidget.min.js?v=1562693007,http://gmf.test/cpresources/2f37831e/UpdatesWidget.min.js?v=1562693007,http://gmf.test/cpresources/75dbad43/FeedWidget.min.js?v=1562693007,http://gmf.test/cpresources/cfcda8b1/Dashboard.min.js?v=1562693007'
    'HTTP_CONTENT_TYPE' => 'application/x-www-form-urlencoded; charset=UTF-8'
    'HTTP_X_REGISTERED_ASSET_BUNDLES' => ',craft\\web\\assets\\recententries\\RecentEntriesAsset,craft\\web\\assets\\cp\\CpAsset,craft\\web\\assets\\d3\\D3Asset,craft\\web\\assets\\elementresizedetector\\ElementResizeDetectorAsset,craft\\web\\assets\\garnish\\GarnishAsset,yii\\web\\JqueryAsset,craft\\web\\assets\\jquerytouchevents\\JqueryTouchEventsAsset,craft\\web\\assets\\velocity\\VelocityAsset,craft\\web\\assets\\jqueryui\\JqueryUiAsset,craft\\web\\assets\\jquerypayment\\JqueryPaymentAsset,craft\\web\\assets\\datepickeri18n\\DatepickerI18nAsset,craft\\web\\assets\\picturefill\\PicturefillAsset,craft\\web\\assets\\selectize\\SelectizeAsset,craft\\web\\assets\\fileupload\\FileUploadAsset,craft\\web\\assets\\xregexp\\XregexpAsset,craft\\web\\assets\\fabric\\FabricAsset,craft\\web\\assets\\craftsupport\\CraftSupportAsset,craft\\web\\assets\\updateswidget\\UpdatesWidgetAsset,craft\\web\\assets\\feed\\FeedAsset,craft\\web\\assets\\dashboard\\DashboardAsset'
    'HTTP_X_CSRF_TOKEN' => '••••••••••••••••••••••••••••••••••••••••••••••••••••••••••••••••••••••••••••••••••••••••••••••••••••••••••••••••••••••••••••••••••••••••••••••••••••••••••••••••••••••••••••••••••••••••••••••••••••••••••••••••••••••••••••••••••••••••••••••••••••••••••••••••••••••••••••••••••••••••••••••••••••••••••••••••••••••••••••••••••••••••••••••••••••••••••••••••••••••••••••••••••••••••••••••••••••••••••••••••••••••••••••••••••••••••••••••••••••••••••••••••••••••••••••••••••••••••••••••••••••••••••••••••••••••••••••••••••••••••••••••••••••••••••••••••••••••••••••'
    'HTTP_ORIGIN' => 'http://gmf.test'
    'HTTP_CONTENT_LENGTH' => '49'
    'HTTP_CONNECTION' => 'keep-alive'
    'HTTP_HOST' => 'gmf.test'
    'REDIRECT_STATUS' => '200'
    'SERVER_NAME' => 'gmf.test'
    'SERVER_PORT' => '80'
    'SERVER_ADDR' => '192.168.10.10'
    'REMOTE_PORT' => '63328'
    'REMOTE_ADDR' => '192.168.10.1'
    'SERVER_SOFTWARE' => 'nginx/1.15.8'
    'GATEWAY_INTERFACE' => 'CGI/1.1'
    'SERVER_PROTOCOL' => 'HTTP/1.1'
    'DOCUMENT_ROOT' => '/home/vagrant/sites/gmf/public_html'
    'DOCUMENT_URI' => '/index.php'
    'REQUEST_URI' => '/index.php?p=admin/actions/dashboard/get-feed-items'
    'SCRIPT_NAME' => '/index.php'
    'SCRIPT_FILENAME' => '/home/vagrant/sites/gmf/public_html/index.php'
    'CONTENT_LENGTH' => '49'
    'CONTENT_TYPE' => 'application/x-www-form-urlencoded; charset=UTF-8'
    'REQUEST_METHOD' => 'POST'
    'QUERY_STRING' => 'p=admin/actions/dashboard/get-feed-items'
    'FCGI_ROLE' => 'RESPONDER'
    'PHP_SELF' => '/index.php'
    'REQUEST_TIME_FLOAT' => 1563890377.7265
    'REQUEST_TIME' => 1563890377
    'ENVIRONMENT' => 'dev'
    'SECURITY_KEY' => '•••••••'
    'DB_DRIVER' => 'mysql'
    'DB_SERVER' => 'localhost'
    'DB_USER' => 'homestead'
    'DB_PASSWORD' => '••••••'
    'DB_DATABASE' => 'gmf'
    'DB_SCHEMA' => 'public'
    'DB_TABLE_PREFIX' => 'gmf_'
    'DB_PORT' => ''
]
